[
  {
    "model": "setor.setor",
    "pk": 1,
    "fields": {
      "nome": "Tecnologia e Informática",
      "sigla": "TI",
      "telefone": "3322-0001"
    }
  },
  {
    "model": "setor.setor",
    "pk": 2,
    "fields": {
      "nome": "Administração",
      "sigla": "ADM",
      "telefone": "3322-0002"
    }
  },
  {
    "model": "setor.setor",
    "pk": 3,
    "fields": {
      "nome": "Financeiro",
      "sigla": "FIN",
      "telefone": "3322-0003"
    }
  },
   {
    "model": "setor.setor",
    "pk": 4,
    "fields": {
      "nome": "Diretoria",
      "sigla": "DIR",
      "telefone": "3322-0004"
    }
  }
]